IMEA
…
Carregando os pacotes e os dados

Carregando dados

USD_BRL <- readxl::read_excel("USD_BRL2.xlsx")
USD_BRL2 <- readxl::read_excel("USD_BRL3.xlsx")

Joined <- left_join(df, USD_BRL, by = "Data")

Ajuste por dólar

Joined<-Joined %>% mutate(Valor_dólar = Valor/Último)
rm(USD_BRL,USD_BRL2)

## # A tibble: 9,260 x 13
##    Cadeia Indicador Estado Macrorregião Cidade Data                Valor Unidade
##    <chr>  <chr>     <chr>  <chr>        <chr>  <dttm>              <dbl> <chr>  
##  1 Algod~ Preço de~ Mato ~ Centro-Sul   Cuiabá 2019-02-01 00:00:00  91.4 Reais ~
##  2 Algod~ Preço de~ Mato ~ Centro-Sul   Diama~ 2019-02-01 00:00:00  90.7 Reais ~
##  3 Algod~ Preço de~ Mato ~ Médio-Norte  Nova ~ 2019-02-01 00:00:00  89.9 Reais ~
##  4 Algod~ Preço de~ Mato ~ Sudeste      Itiqu~ 2019-02-01 00:00:00  92.4 Reais ~
##  5 Algod~ Preço de~ Mato ~ Sudeste      Prima~ 2019-02-01 00:00:00  91.7 Reais ~
##  6 Algod~ Preço de~ Mato ~ Sudeste      Rondo~ 2019-02-01 00:00:00  92.1 Reais ~
##  7 Algod~ Preço de~ Mato ~ Médio-Norte  Sorri~ 2019-02-01 00:00:00  89.9 Reais ~
##  8 Algod~ Preço de~ Mato ~ <NA>         <NA>   2019-02-01 00:00:00  90.4 Reais ~
##  9 Algod~ Preço de~ Mato ~ Oeste        Campo~ 2019-02-01 00:00:00  89.9 Reais ~
## 10 Algod~ Preço de~ Mato ~ Médio-Norte  Lucas~ 2019-02-01 00:00:00  89.9 Reais ~
## # ... with 9,250 more rows, and 5 more variables: Safra <chr>, Status <lgl>,
## #   `Estado Destino` <chr>, `Macrorregião Destino` <chr>,
## #   `Cidade Destino` <chr>
…
